lab6/test_run_dir/DisplayTest_should_pass/Display.vcd
$date
2024-03-21T16:27+0000
$end
$version
0.2
$end
$comment

$end
$timescale 1ns  $end
$scope module Display $end
 $var wire 4 " io_an $end
 $var wire 7 3 io_seg $end
 $var wire 1 6 dispMux $end
 $var wire 1 9 clock $end
 $var wire 16 : io_sw $end
 $var wire 1 #( reset $end
  $scope module dispMux.sevensegdec $end
  $upscope $end
  $scope module dispMux $end
   $var wire 1 ! pricebcd $end
   $var wire 7 # io_seg $end
   $var wire 1 ( clock $end
   $var wire 17 4 onekhzReg $end
   $var wire 1 5 onekhztick $end
   $var wire 1 7 sevensegdec $end
   $var wire 4 8 select $end
   $var wire 7 ; sevSeg $end
   $var wire 4 E io_an $end
   $var wire 8 #6 io_price $end
   $var wire 1 #9 sumbcd $end
   $var wire 1 #B reset $end
   $var wire 4 #D shiftReg $end
    $scope module sevensegdec $end
     $var wire 4 $ io_in $end
     $var wire 7 & sevSeg $end
     $var wire 7 ' io_out $end
    $upscope $end
    $scope module sumbcd $end
     $var wire 8 % io_data $end
     $var wire 8 < table_21 $end
     $var wire 8 = table_22 $end
     $var wire 8 > table_20 $end
     $var wire 8 C table_29 $end
     $var wire 8 G table_27 $end
     $var wire 8 I table_28 $end
     $var wire 8 K table_25 $end
     $var wire 8 L table_26 $end
     $var wire 8 M table_23 $end
     $var wire 8 O table_24 $end
     $var wire 8 Q table_32 $end
     $var wire 8 R table_33 $end
     $var wire 8 S table_30 $end
     $var wire 8 T table_31 $end
     $var wire 8 U table_38 $end
     $var wire 8 V table_39 $end
     $var wire 8 W table_36 $end
     $var wire 8 X table_37 $end
     $var wire 8 Y table_34 $end
     $var wire 8 Z table_35 $end
     $var wire 8 e table_10 $end
     $var wire 8 g table_11 $end
     $var wire 8 l table_18 $end
     $var wire 8 n table_19 $end
     $var wire 8 p table_16 $end
     $var wire 8 r table_17 $end
     $var wire 8 t table_14 $end
     $var wire 8 u table_15 $end
     $var wire 8 v table_12 $end
     $var wire 8 w table_13 $end
     $var wire 8 y table_65 $end
     $var wire 8 { table_66 $end
     $var wire 8 } table_63 $end
     $var wire 8 "! table_64 $end
     $var wire 8 "# table_61 $end
     $var wire 8 "% table_62 $end
     $var wire 8 "( table_60 $end
     $var wire 8 ", table_69 $end
     $var wire 8 "- table_67 $end
     $var wire 8 ". table_68 $end
     $var wire 8 "0 table_76 $end
     $var wire 8 "2 table_77 $end
     $var wire 8 "4 table_74 $end
     $var wire 8 "6 table_75 $end
     $var wire 8 "7 table_72 $end
     $var wire 8 "9 table_73 $end
     $var wire 8 "; table_70 $end
     $var wire 8 "= table_71 $end
     $var wire 8 "B table_78 $end
     $var wire 8 "C table_79 $end
     $var wire 8 "D table_80 $end
     $var wire 8 "E table_43 $end
     $var wire 8 "G table_44 $end
     $var wire 8 "I table_41 $end
     $var wire 8 "K table_42 $end
     $var wire 8 "N table_40 $end
     $var wire 8 "R table_49 $end
     $var wire 8 "S table_47 $end
     $var wire 8 "T table_48 $end
     $var wire 8 "U table_45 $end
     $var wire 8 "V table_46 $end
     $var wire 8 "Z table_54 $end
     $var wire 8 "\ table_55 $end
     $var wire 8 "^ table_52 $end
     $var wire 8 "` table_53 $end
     $var wire 8 "b table_50 $end
     $var wire 8 "d table_51 $end
     $var wire 8 "i table_58 $end
     $var wire 8 "j table_59 $end
     $var wire 8 "k table_56 $end
     $var wire 8 "l table_57 $end
     $var wire 8 "u table_3 $end
     $var wire 8 "v table_4 $end
     $var wire 8 "w table_5 $end
     $var wire 8 "x table_6 $end
     $var wire 8 "y table_0 $end
     $var wire 8 "z table_1 $end
     $var wire 8 "{ table_2 $end
     $var wire 8 "| table_7 $end
     $var wire 8 "} table_8 $end
     $var wire 8 "~ table_9 $end
     $var wire 8 #- table_87 $end
     $var wire 8 #. table_88 $end
     $var wire 8 #/ table_85 $end
     $var wire 8 #0 table_86 $end
     $var wire 8 #1 table_83 $end
     $var wire 8 #2 table_84 $end
     $var wire 8 #3 table_81 $end
     $var wire 8 #4 table_82 $end
     $var wire 8 #5 table_89 $end
     $var wire 8 #7 table_90 $end
     $var wire 8 #8 table_91 $end
     $var wire 8 #: table_98 $end
     $var wire 8 #; table_99 $end
     $var wire 8 #< table_96 $end
     $var wire 8 #= table_97 $end
     $var wire 8 #> table_94 $end
     $var wire 8 #? table_95 $end
     $var wire 8 #@ table_92 $end
     $var wire 8 #A table_93 $end
     $var wire 8 #C io_address $end
    $upscope $end
    $scope module pricebcd $end
     $var wire 8 ) table_7 $end
     $var wire 8 * table_8 $end
     $var wire 8 + table_5 $end
     $var wire 8 , table_6 $end
     $var wire 8 - table_9 $end
     $var wire 8 . table_0 $end
     $var wire 8 / table_3 $end
     $var wire 8 0 table_4 $end
     $var wire 8 1 table_1 $end
     $var wire 8 2 table_2 $end
     $var wire 8 ? table_13 $end
     $var wire 8 @ table_12 $end
     $var wire 8 A table_11 $end
     $var wire 8 B table_10 $end
     $var wire 8 D table_17 $end
     $var wire 8 F table_16 $end
     $var wire 8 H table_15 $end
     $var wire 8 J table_14 $end
     $var wire 8 N table_19 $end
     $var wire 8 P table_18 $end
     $var wire 8 [ table_31 $end
     $var wire 8 \ table_30 $end
     $var wire 8 ] table_35 $end
     $var wire 8 ^ table_34 $end
     $var wire 8 _ table_33 $end
     $var wire 8 ` table_32 $end
     $var wire 8 a table_39 $end
     $var wire 8 b table_38 $end
     $var wire 8 c table_37 $end
     $var wire 8 d table_36 $end
     $var wire 8 f table_20 $end
     $var wire 8 h table_24 $end
     $var wire 8 i table_23 $end
     $var wire 8 j table_22 $end
     $var wire 8 k table_21 $end
     $var wire 8 m table_28 $end
     $var wire 8 o table_27 $end
     $var wire 8 q table_26 $end
     $var wire 8 s table_25 $end
     $var wire 8 x table_29 $end
     $var wire 8 z table_53 $end
     $var wire 8 | table_52 $end
     $var wire 8 ~ table_51 $end
     $var wire 8 "" table_50 $end
     $var wire 8 "$ table_57 $end
     $var wire 8 "& table_56 $end
     $var wire 8 "' table_55 $end
     $var wire 8 ") table_54 $end
     $var wire 8 "* table_59 $end
     $var wire 8 "+ table_58 $end
     $var wire 8 "/ table_60 $end
     $var wire 8 "1 table_42 $end
     $var wire 8 "3 table_41 $end
     $var wire 8 "5 table_40 $end
     $var wire 8 "8 table_46 $end
     $var wire 8 ": table_45 $end
     $var wire 8 "< table_44 $end
     $var wire 8 "> table_43 $end
     $var wire 8 "? table_49 $end
     $var wire 8 "@ table_48 $end
     $var wire 8 "A table_47 $end
     $var wire 8 "F table_75 $end
     $var wire 8 "H table_74 $end
     $var wire 8 "J table_73 $end
     $var wire 8 "L table_72 $end
     $var wire 8 "M table_79 $end
     $var wire 8 "O table_78 $end
     $var wire 8 "P table_77 $end
     $var wire 8 "Q table_76 $end
     $var wire 8 "W table_82 $end
     $var wire 8 "X table_81 $end
     $var wire 8 "Y table_80 $end
     $var wire 8 "[ table_64 $end
     $var wire 8 "] table_63 $end
     $var wire 8 "_ table_62 $end
     $var wire 8 "a table_61 $end
     $var wire 8 "c table_68 $end
     $var wire 8 "e table_67 $end
     $var wire 8 "f table_66 $end
     $var wire 8 "g table_65 $end
     $var wire 8 "h table_69 $end
     $var wire 8 "m table_71 $end
     $var wire 8 "n table_70 $end
     $var wire 8 "o table_97 $end
     $var wire 8 "p table_96 $end
     $var wire 8 "q table_95 $end
     $var wire 8 "r table_94 $end
     $var wire 8 "s table_99 $end
     $var wire 8 "t table_98 $end
     $var wire 8 #! table_86 $end
     $var wire 8 #" table_85 $end
     $var wire 8 ## table_84 $end
     $var wire 8 #$ table_83 $end
     $var wire 8 #% table_89 $end
     $var wire 8 #& table_88 $end
     $var wire 8 #' table_87 $end
     $var wire 8 #) table_93 $end
     $var wire 8 #* table_92 $end
     $var wire 8 #+ table_91 $end
     $var wire 8 #, table_90 $end
     $var wire 8 #E io_data $end
     $var wire 8 #F io_address $end
    $upscope $end
  $upscope $end
  $scope module dispMux.sumbcd $end
  $upscope $end
  $scope module dispMux.pricebcd $end
  $upscope $end
$upscope $end
$enddefinitions $end
$dumpvars
b00000000 k
b00000000 j
b00000000 m
b00000000 l
b00000000 g
05
b00000000 f
06
b00000000 i
07
b00000000 h
b00000000 c
09
b00000000 b
b00000000 e
b00000000 d
b00000000 _
b00000000 ^
b00000000 a
b00000000 `
b00000000 {
b00000000 z
b00000000 }
b00000000 |
b00000000 w
b00000000 v
b00000000 y
b00000000 x
b00000000 s
b00000000 r
b00000000 u
b00000000 t
b00000000 o
b00000000 n
b00000000 q
b0000000000000000 :
b00000000 p
b0000 $
b00000000 K
b00000000 J
b0000 "
b00000000 M
b00000000 L
b00000000 G
b00000000 F
b00000000 I
b00000000 H
b00000000 C
b00000000 B
b00000000 D
b00000000 ?
b00000000 >
b00000000 A
b00000000 @
b00000000 [
b00000000 Z
b00000000000000000 4
b00000000 ]
b00000000 \
b00000000 W
b00000000 V
b00000000 Y
b00000000 X
b00000000 S
b00000000 R
b00000000 U
b00000000 T
b0000 8
b00000000 O
b00000000 N
b00000000 Q
b00000000 P
b00000000 ~
b00000000 "g
b00000000 "f
b00000000 "e
b00000000 #F
b00000000 "d
b00000000 #E
b00000000 "k
b00000000 "j
b00000000 "i
b00000000 "h
b00000000 "o
b00000000 "n
b00000000 "m
b00000000 "l
b00000000 "s
b00000000 "r
b00000000 "q
b00000000 "p
b00000000 "w
b00000000 "v
b00000000 "u
b00000000 "t
b00000000 "{
0#(
b00000000 "z
b00000000 "y
b00000000 "x
b00000000 "~
b00000000 "}
b00000000 "|
0#9
0#B
b0000000 ;
b0000000 3
b0000000 #
b0000000 '
b0000000 &
b00000000 "#
b00000000 ""
b00000000 "!
b00000000 "'
b00000000 "&
b00000000 "%
b00000000 "$
b00000000 "+
b00000000 "*
b00000000 ")
b00000000 "(
b00000000 "/
b00000000 ".
b00000000 "-
b00000000 ",
b00000000 "3
b00000000 "2
b00000000 "1
b00000000 "0
b00000000 "7
b00000000 "6
b00000000 "5
b00000000 "4
b00000000 ";
b00000000 ":
b00000000 "9
b00000000 "8
b00000000 "?
b00000000 ">
b00000000 "=
b00000000 "<
b00000000 "C
b00000000 #$
b00000000 "B
b00000000 ##
b00000000 "A
b00000000 #"
b00000000 "@
b00000000 #!
b00000000 "G
b00000000 "F
b00000000 #'
b00000000 "E
b00000000 #&
b00000000 "D
b00000000 #%
b00000000 "K
b00000000 #,
b00000000 "J
b00000000 #+
b00000000 "I
b00000000 #*
b00000000 "H
b00000000 #)
b00000000 "O
b00000000 #0
b00000000 "N
b00000000 #/
b00000000 "M
b00000000 #.
b00000000 "L
b00000000 #-
b00000000 "S
b00000000 #4
b00000000 "R
b00000000 #3
b00000000 "Q
b00000000 #2
b00000000 "P
b00000000 #1
b00000000 "W
b00000000 #8
b00000000 "V
b00000000 #7
b00000000 "U
b00000000 #6
b00000000 "T
b00000000 #5
b00000000 "[
b00000000 #<
b00000000 "Z
b00000000 #;
b00000000 "Y
b00000000 #:
b00000000 "X
b00000000 "_
b00000000 #@
b00000000 "^
b00000000 #?
b00000000 "]
b00000000 #>
b00000000 "\
b00000000 #=
b00000000 "c
b00000000 "b
b00000000 #C
b00000000 "a
b00000000 "`
b00000000 #A
b00000000 +
b0000 E
b00000000 *
b00000000 -
b00000000 ,
b00000000 )
b00000000 %
b00000000 =
b00000000 <
b00000000 2
b00000000 /
b00000000 .
b00000000 1
b00000000 0
0!
0(
b0000 #D
$end
#0
b1111 "
b1000000 #
b0111111 &
b0111111 '
b00000111 )
b00001000 *
b00000101 +
b00000110 ,
b00001001 -
b00000011 /
b00000100 0
b00000001 1
b00000010 2
b1000000 3
15
b0111111 ;
b00100001 <
b00100010 =
b00100000 >
b00010011 ?
b01100100 "!
b00010010 @
b01010000 ""
b00010001 A
b01100001 "#
b00010000 B
b01010111 "$
b00101001 C
b01100010 "%
b00010111 D
b01010110 "&
b1111 E
b01010101 "'
b00010110 F
b01100000 "(
b00100111 G
b01010100 ")
b00010101 H
b01011001 "*
b00101000 I
b01011000 "+
b00010100 J
b01101001 ",
b00100101 K
b01100111 "-
b00100110 L
b01101000 ".
b00100011 M
b01100000 "/
b00011001 N
b01110110 "0
b00100100 O
b01000010 "1
b00011000 P
b01110111 "2
b00110010 Q
b01000001 "3
b00110011 R
b01110100 "4
b00110000 S
b01000000 "5
b00110001 T
b01110101 "6
b00111000 U
b01110010 "7
b00111001 V
b01000110 "8
b00110110 W
b01110011 "9
b00110111 X
b01000101 ":
b00110100 Y
b01110000 ";
b00110101 Z
b01000100 "<
b00110001 [
b01110001 "=
b00110000 \
b01000011 ">
b00110101 ]
b01001001 "?
b00110100 ^
b01001000 "@
b10000110 #!
b00110011 _
b01000111 "A
b10000101 #"
b00110010 `
b10000100 ##
b01111000 "B
b00111001 a
b10000011 #$
b01111001 "C
b00111000 b
b10001001 #%
b10000000 "D
b00110111 c
b10001000 #&
b01000011 "E
b00110110 d
b01110101 "F
b10000111 #'
b00010000 e
1#(
b01000100 "G
b00100000 f
b01110100 "H
b10010011 #)
b00010001 g
b10010010 #*
b01000001 "I
b00100100 h
b01110011 "J
b10010001 #+
b00100011 i
b10010000 #,
b01000010 "K
b00100010 j
b01110010 "L
b10000111 #-
b00100001 k
b01111001 "M
b10001000 #.
b00011000 l
b01000000 "N
b10000101 #/
b00101000 m
b01111000 "O
b10000110 #0
b00011001 n
b01110111 "P
b10000011 #1
b00100111 o
b01110110 "Q
b10000100 #2
b00010110 p
b01001001 "R
b10000001 #3
b00100110 q
b01000111 "S
b10000010 #4
b00010111 r
b01001000 "T
b10001001 #5
b00100101 s
b01000101 "U
b00010100 t
b01000110 "V
b10010000 #7
b00010101 u
b10000010 "W
b10010001 #8
b00010010 v
b10000001 "X
b00010011 w
b10000000 "Y
b10011000 #:
b00101001 x
b01010100 "Z
b10011001 #;
b01100101 y
b01100100 "[
b10010110 #<
b01010011 z
b01010101 "\
b10010111 #=
b01100110 {
b01100011 "]
b10010100 #>
b01010010 |
b01010010 "^
b10010101 #?
b01100011 }
b01100010 "_
b10010010 #@
b01010001 ~
b01010011 "`
b10010011 #A
b01100001 "a
1#B
b01010000 "b
b01101000 "c
b01010001 "d
b01100111 "e
b01100110 "f
b01100101 "g
b01101001 "h
b01011000 "i
b01011001 "j
b01010110 "k
b01010111 "l
b01110001 "m
b01110000 "n
b10010111 "o
b10010110 "p
b10010101 "q
b10010100 "r
b10011001 "s
b10011000 "t
b00000011 "u
b00000100 "v
b00000101 "w
b00000110 "x
b00000001 "z
b00000010 "{
b00000111 "|
b00001000 "}
b00001001 "~
#1
b0001 #D
b1110 "
b11000011010011111 4
05
b1110 E
1(
b0001 8
19
#6
b00110100 #C
b01010010 #E
b0100100 #
b00110100 #F
b0010 $
b01010010 %
0#(
b1011011 &
b1011011 '
0(
b0100100 3
b00110100 #6
09
b0001001000110100 :
b1011011 ;
0#B
#11
b11000011010011110 4
1(
19
#16
0(
09
#21
b11000011010011101 4
1(
19
#26
0(
09
#31
b11000011010011100 4
1(
19
#36
0(
09
#41
b11000011010011011 4
1(
19
#46
0(
09
#51
b11000011010011010 4
1(
19
#56
0(
09
#61
b11000011010011001 4
1(
19
#66
0(
09
#71
b11000011010011000 4
1(
19
#76
0(
09
#81
b11000011010010111 4
1(
19
#86
0(
09
#91
b11000011010010110 4
1(
19
#96
0(
09
#101
b11000011010010101 4
1(
19
#106
0(
09
#111
b11000011010010100 4
1(
19
#116
0(
09
#121
b11000011010010011 4
1(
19
#126
0(
09
#131
b11000011010010010 4
1(
19
#136
0(
09
#141
b11000011010010001 4
1(
19
#146
0(
09
#151
b11000011010010000 4
1(
19
#156
0(
09
#161
b11000011010001111 4
1(
19
#166
0(
09
#171
b11000011010001110 4
1(
19
#176
0(
09
#181
b11000011010001101 4
1(
19
#186
0(
09
#191
b11000011010001100 4
1(
19
#196
0(
09
#201
b11000011010001011 4
1(
19
#206
0(
09
#211
b11000011010001010 4
1(
19
#216
0(
09
#221
b11000011010001001 4
1(
19
#226
0(
09
#231
b11000011010001000 4
1(
19
#236
0(
09
#241
b11000011010000111 4
1(
19
#246
0(
09
#251
b11000011010000110 4
1(
19
#256
0(
09
#261
b11000011010000101 4
1(
19
#266
0(
09
#271
b11000011010000100 4
1(
19
#276
0(
09
#281
b11000011010000011 4
1(
19
#286
0(
09
#291
b11000011010000010 4
1(
19
#296
0(
09
#301
b11000011010000001 4
1(
19
#306
0(
09
#311
b11000011010000000 4
1(
19
#316
0(
09
#321
b11000011001111111 4
1(
19
#326
0(
09
#331
b11000011001111110 4
1(
19
#336
0(
09
#341
b11000011001111101 4
1(
19
#346
0(
09
#351
b11000011001111100 4
1(
19
#356
0(
09
#361
b11000011001111011 4
1(
19
#366
0(
09
#371
b11000011001111010 4
1(
19
#376
0(
09
#381
b11000011001111001 4
1(
19
#386
0(
09
#391
b11000011001111000 4
1(
19
#396
0(
09
#401
b11000011001110111 4
1(
19
#406
0(
09
#411
b11000011001110110 4
1(
19
#416
0(
09
#421
b11000011001110101 4
1(
19
#426
0(
09
#431
b11000011001110100 4
1(
19
#436
0(
09
#441
b11000011001110011 4
1(
19
#446
0(
09
#451
b11000011001110010 4
1(
19
#456
0(
09
#461
b11000011001110001 4
1(
19
#466
0(
09
#471
b11000011001110000 4
1(
19
#476
0(
09
#481
b11000011001101111 4
1(
19
#486
0(
09
#491
b11000011001101110 4
1(
19
#496
0(
09
#501
b11000011001101101 4
1(
19
#506
0(
09
#511
b11000011001101100 4
1(
19
#516
0(
09
#521
b11000011001101011 4
1(
19
#526
0(
09
#531
b11000011001101010 4
1(
19
#536
0(
09
#541
b11000011001101001 4
1(
19
#546
0(
09
#551
b11000011001101000 4
1(
19
#556
0(
09
#561
b11000011001100111 4
1(
19
#566
0(
09
#571
b11000011001100110 4
1(
19
#576
0(
09
#581
b11000011001100101 4
1(
19
#586
0(
09
#591
b11000011001100100 4
1(
19
#596
0(
09
#601
b11000011001100011 4
1(
19
#606
0(
09
#611
b11000011001100010 4
1(
19
#616
0(
09
#621
b11000011001100001 4
1(
19
#626
0(
09
#631
b11000011001100000 4
1(
19
#636
0(
09
#641
b11000011001011111 4
1(
19
#646
0(
09
#651
b11000011001011110 4
1(
19
#656
0(
09
#661
b11000011001011101 4
1(
19
#666
0(
09
#671
b11000011001011100 4
1(
19
#676
0(
09
#681
b11000011001011011 4
1(
19
#686
0(
09
#691
b11000011001011010 4
1(
19
#696
0(
09
#701
b11000011001011001 4
1(
19
#706
0(
09
#711
b11000011001011000 4
1(
19
#716
0(
09
#721
b11000011001010111 4
1(
19
#726
0(
09
#731
b11000011001010110 4
1(
19
#736
0(
09
#741
b11000011001010101 4
1(
19
#746
0(
09
#751
b11000011001010100 4
1(
19
#756
0(
09
#761
b11000011001010011 4
1(
19
#766
0(
09
#771
b11000011001010010 4
1(
19
#776
0(
09
#781
b11000011001010001 4
1(
19
#786
0(
09
#791
b11000011001010000 4
1(
19
#796
0(
09
#801
b11000011001001111 4
1(
19
#806
0(
09
#811
b11000011001001110 4
1(
19
#816
0(
09
#821
b11000011001001101 4
1(
19
#826
0(
09
#831
b11000011001001100 4
1(
19
#836
0(
09
#841
b11000011001001011 4
1(
19
#846
0(
09
#851
b11000011001001010 4
1(
19
#856
0(
09
#861
b11000011001001001 4
1(
19
#866
0(
09
#871
b11000011001001000 4
1(
19
#876
0(
09
#881
b11000011001000111 4
1(
19
#886
0(
09
#891
b11000011001000110 4
1(
19
#896
0(
09
#901
b11000011001000101 4
1(
19
#906
0(
09
#911
b11000011001000100 4
1(
19
#916
0(
09
#921
b11000011001000011 4
1(
19
#926
0(
09
#931
b11000011001000010 4
1(
19
#936
0(
09
#941
b11000011001000001 4
1(
19
#946
0(
09
#951
b11000011001000000 4
1(
19
#956
0(
09
#961
b11000011000111111 4
1(
19
#966
0(
09
#971
b11000011000111110 4
1(
19
#976
0(
09
#981
b11000011000111101 4
1(
19
#986
0(
09
#991
b11000011000111100 4
1(
19
#996
0(
09
#1001
b11000011000111011 4
1(
19
#1006
0(
09
#1011
b11000011000111010 4
1(
19
#1016
0(
09
#1021
b11000011000111001 4
1(
19
#1026
0(
09
#1031
b11000011000111000 4
1(
19
#1036
0(
09
#1041
b11000011000110111 4
1(
19
#1046
0(
09
#1051
b11000011000110110 4
1(
19
#1056
0(
09
#1061
b11000011000110101 4
1(
19
#1066
0(
09
#1071
b11000011000110100 4
1(
19
#1076
0(
09
#1081
b11000011000110011 4
1(
19
#1086
0(
09
#1091
b11000011000110010 4
1(
19
#1096
0(
09
#1101
b11000011000110001 4
1(
19
#1106
0(
09
#1111
b11000011000110000 4
1(
19
#1116
0(
09
#1121
b11000011000101111 4
1(
19
#1126
0(
09
#1131
b11000011000101110 4
1(
19
#1136
0(
09
#1141
b11000011000101101 4
1(
19
#1146
0(
09
#1151
b11000011000101100 4
1(
19
#1156
0(
09
#1161
b11000011000101011 4
1(
19
#1166
0(
09
#1171
b11000011000101010 4
1(
19
#1176
0(
09
#1181
b11000011000101001 4
1(
19
#1186
0(
09
#1191
b11000011000101000 4
1(
19
#1196
0(
09
#1201
b11000011000100111 4
1(
19
#1206
0(
09
#1211
b11000011000100110 4
1(
19
#1216
0(
09
#1221
b11000011000100101 4
1(
19
#1226
0(
09
#1231
b11000011000100100 4
1(
19
#1236
0(
09
#1241
b11000011000100011 4
1(
19
#1246
0(
09
#1251
b11000011000100010 4
1(
19
#1256
0(
09
#1261
b11000011000100001 4
1(
19
#1266
0(
09
#1271
b11000011000100000 4
1(
19
#1276
0(
09
#1281
b11000011000011111 4
1(
19
#1286
0(
09
#1291
b11000011000011110 4
1(
19
#1296
0(
09
#1301
b11000011000011101 4
1(
19
#1306
0(
09
#1311
b11000011000011100 4
1(
19
#1316
0(
09
#1321
b11000011000011011 4
1(
19
#1326
0(
09
#1331
b11000011000011010 4
1(
19
#1336
0(
09
#1341
b11000011000011001 4
1(
19
#1346
0(
09
#1351
b11000011000011000 4
1(
19
#1356
0(
09
#1361
b11000011000010111 4
1(
19
#1366
0(
09
#1371
b11000011000010110 4
1(
19
#1376
0(
09
#1381
b11000011000010101 4
1(
19
#1386
0(
09
#1391
b11000011000010100 4
1(
19
#1396
0(
09
#1401
b11000011000010011 4
1(
19
#1406
0(
09
#1411
b11000011000010010 4
1(
19
#1416
0(
09
#1421
b11000011000010001 4
1(
19
#1426
0(
09
#1431
b11000011000010000 4
1(
19
#1436
0(
09
#1441
b11000011000001111 4
1(
19
#1446
0(
09
#1451
b11000011000001110 4
1(
19
#1456
0(
09
#1461
b11000011000001101 4
1(
19
#1466
0(
09
#1471
b11000011000001100 4
1(
19
#1476
0(
09
#1481
b11000011000001011 4
1(
19
#1486
0(
09
#1491
b11000011000001010 4
1(
19
#1496
0(
09
#1501
b11000011000001001 4
1(
19
#1506
0(
09
#1511
b11000011000001000 4
1(
19
#1516
0(
09
#1521
b11000011000000111 4
1(
19
#1526
0(
09
#1531
b11000011000000110 4
1(
19
#1536
0(
09
#1541
b11000011000000101 4
1(
19
#1546
0(
09
#1551
b11000011000000100 4
1(
19
#1556
0(
09
#1561
b11000011000000011 4
1(
19
#1566
0(
09
#1571
b11000011000000010 4
1(
19
#1576
0(
09
#1581
b11000011000000001 4
1(
19
#1586
0(
09
#1591
b11000011000000000 4
1(
19
#1596
0(
09
#1601
b11000010111111111 4
1(
19
#1606
0(
09
#1611
b11000010111111110 4
1(
19
#1616
0(
09
#1621
b11000010111111101 4
1(
19
#1626
0(
09
#1631
b11000010111111100 4
1(
19
#1636
0(
09
#1641
b11000010111111011 4
1(
19
#1646
0(
09
#1651
b11000010111111010 4
1(
19
#1656
0(
09
#1661
b11000010111111001 4
1(
19
#1666
0(
09
#1671
b11000010111111000 4
1(
19
#1676
0(
09
#1681
b11000010111110111 4
1(
19
#1686
0(
09
#1691
b11000010111110110 4
1(
19
#1696
0(
09
#1701
b11000010111110101 4
1(
19
#1706
0(
09
#1711
b11000010111110100 4
1(
19
#1716
0(
09
#1721
b11000010111110011 4
1(
19
#1726
0(
09
#1731
b11000010111110010 4
1(
19
#1736
0(
09
#1741
b11000010111110001 4
1(
19
#1746
0(
09
#1751
b11000010111110000 4
1(
19
#1756
0(
09
#1761
b11000010111101111 4
1(
19
#1766
0(
09
#1771
b11000010111101110 4
1(
19
#1776
0(
09
#1781
b11000010111101101 4
1(
19
#1786
0(
09
#1791
b11000010111101100 4
1(
19
#1796
0(
09
#1801
b11000010111101011 4
1(
19
#1806
0(
09
#1811
b11000010111101010 4
1(
19
#1816
0(
09
#1821
b11000010111101001 4
1(
19
#1826
0(
09
#1831
b11000010111101000 4
1(
19
#1836
0(
09
#1841
b11000010111100111 4
1(
19
#1846
0(
09
#1851
b11000010111100110 4
1(
19
#1856
0(
09
#1861
b11000010111100101 4
1(
19
#1866
0(
09
#1871
b11000010111100100 4
1(
19
#1876
0(
09
#1881
b11000010111100011 4
1(
19
#1886
0(
09
#1891
b11000010111100010 4
1(
19
#1896
0(
09
#1901
b11000010111100001 4
1(
19
#1906
0(
09
#1911
b11000010111100000 4
1(
19
#1916
0(
09
#1921
b11000010111011111 4
1(
19
#1926
0(
09
#1931
b11000010111011110 4
1(
19
#1936
0(
09
#1941
b11000010111011101 4
1(
19
#1946
0(
09
#1951
b11000010111011100 4
1(
19
#1956
0(
09
#1961
b11000010111011011 4
1(
19
#1966
0(
09
#1971
b11000010111011010 4
1(
19
#1976
0(
09
#1981
b11000010111011001 4
1(
19
#1986
0(
09
#1991
b11000010111011000 4
1(
19
#1996
0(
09
#2001
b11000010111010111 4
1(
19
#2006
09
b0000000000000000 :
